Data wrangling of responses • kbtbr
…
The overall question label and the label for each “subquestion” are divided by a ‘/’. This is an important detail for data cleaning because it allows us to use functions like tidyr::pivot_longer to bring the data into a long format (e.g. useful for plotting):

imp_life_long <- submissions_df %>%
  select(id, starts_with("importance_in_life")) %>%
  pivot_longer(-id, names_to = "category", values_to = "level") %>%
  mutate(category = str_remove(category, "importance_in_life/") %>% str_replace_all("_", " "))
imp_life_long
#> # A tibble: 48 × 3
#>       id category                  level
#>    <int> <chr>                     <int>
#>  1   482 Politics                      1
#>  2   482 Friends and acquaintances     1
#>  3   482 Family                        2
#>  4   482 Religion                      1
#>  5   482 Leisure time                  1
#>  6   482 Work                          1
#>  7   484 Politics                      3
#>  8   484 Friends and acquaintances     2
#>  9   484 Family                        3
#> 10   484 Religion                      3
#> # … with 38 more rows
…
You can wrap this approach in a function:

pivot_longer_rating <- function(data, question_name) {
  data %>%
    select(id, starts_with(question_name)) %>%
    pivot_longer(-id, names_to = "category", values_to = "level") %>%
    mutate(category = str_remove(category, paste0(question_name, "/")) %>% str_replace_all("_", " "))
}

submissions_df %>%
  pivot_longer_rating("trust_in_groups")
#> # A tibble: 48 × 3
#>       id category                           level
#>    <int> <chr>                              <int>
#>  1   482 Your family                            1
#>  2   482 People you know personally             2
#>  3   482 People you meet for the first time     3
#>  4   482 People of another nationality          2
#>  5   482 People in your neighborhood            3
#>  6   482 People of another religion             2
#>  7   484 Your family                            2
#>  8   484 People you know personally             2
#>  9   484 People you meet for the first time     2
#> 10   484 People of another nationality          3
#> # … with 38 more rows
…
