…
comparison_df 
```

    ## # A tibble: 22 x 5
    ##    name            class_asset length_asset class_url_data is_identical
    ##    <chr>           <chr>              <int> <chr>          <lgl>       
    ##  1 url             character              1 character      TRUE        
    ##  2 owner           character              1 character      TRUE        
    ##  3 owner__username character              1 character      TRUE        
    ##  4 parent          character              1 NULL           FALSE       
    ##  5 settings        data.frame             4 list           FALSE       
    ##  6 asset_type      character              1 character      TRUE        
    ##  7 date_created    character              1 character      TRUE        
    ##  8 summary         data.frame             6 list           FALSE       
    ##  9 date_modified   character              1 character      TRUE        
    ## 10 version_id      character              1 character      TRUE        
    ## # ... with 12 more rows
…
